{
	"required": true,
	"package": "com.marvin23.moistfarmland.mixin",
	"compatibilityLevel": "JAVA_17",
	"mixins": [
		"MixinFarmlandBlock",
		"MixinCropBlock"
	],
	"client": [
		"MixinFarmlandBlock",
		"MixinCropBlock",
		"ItemRendererAccessor",
		"MixinItemRenderer",
		"MixinModelLoader"
	],
	"server": [],
	"injectors": {
		"defaultRequire": 1
	}
}